%YAML 1.1
%TAG !u! tag:unity3d.com,2011:
--- !u!1045 &1
EditorBuildSettings:
  m_ObjectHideFlags: 0
  serializedVersion: 2
  m_Scenes:
  - enabled: 1
    path: Assets/EscapingVikingExtended/Scenes/Spash.unity
  - enabled: 1
    path: Assets/EscapingVikingExtended/Scenes/Main.unity
  - enabled: 1
    path: Assets/EscapingVikingExtended/Scenes/Cave.unity
  - enabled: 1
    path: Assets/EscapingVikingExtended/Scenes/Jungle.unity
